Magnetic_field_data/ALL0001/F0001CH3.CSV

Record Length,2.500000e+03,,   0.133800000000,   0.32000,
Sample Interval,1.000000e-05,,   0.133810000000,   0.32000,
Trigger Point,-1.338000000000e+04,,   0.133820000000,   0.32000,
,,,   0.133830000000,   0.32000,
,,,   0.133840000000,   0.32000,
,,,   0.133850000000,   0.32000,
Source,CH3,,   0.133860000000,   0.32000,
Vertical Units,V,,   0.133870000000,   0.32000,
Vertical Scale,5.000000e-02,,   0.133880000000,   0.32000,
Vertical Offset,-2.700000e-01,,   0.133890000000,   0.32000,
Horizontal Units,s,,   0.133900000000,   0.32000,
Horizontal Scale,2.500000e-03,,   0.133910000000,   0.32000,
Pt Fmt,Y,,   0.133920000000,   0.32000,
Yzero,0.000000e+00,,   0.133930000000,   0.32000,
Probe Atten,1.000000e+00,,   0.133940000000,   0.32000,
Model Number,TDS2024B,,   0.133950000000,   0.32000,
Serial Number,C104837,,   0.133960000000,   0.32000,
Firmware Version,FV:v24.02,,   0.133970000000,   0.32000,
,,,0.133980000000,   0.32000,
,,,0.133990000000,   0.32000,
,,,0.134000000000,   0.32000,
,,,0.134010000000,   0.32000,
,,,0.134020000000,   0.32000,
,,,0.134030000000,   0.32000,
,,,0.134040000000,   0.32000,
,,,0.134050000000,   0.32000,
,,,0.134060000000,   0.32000,
,,,0.134070000000,   0.32000,
,,,0.134080000000,   0.32000,
,,,0.134090000000,   0.32000,
,,,0.134100000000,   0.32000,
,,,0.134110000000,   0.32000,
,,,0.134120000000,   0.32000,
,,,0.134130000000,   0.32000,
,,,0.134140000000,   0.32000,
,,,0.134150000000,   0.32000,
,,,0.134160000000,   0.32000,
,,,0.134170000000,   0.32000,
,,,0.134180000000,   0.32000,
,,,0.134190000000,   0.32000,
,,,0.134200000000,   0.32000,
,,,0.134210000000,   0.32000,
,,,0.134220000000,   0.32000,
,,,0.134230000000,   0.32000,
,,,0.134240000000,   0.32000,
,,,0.134250000000,   0.32000,
,,,0.134260000000,   0.32000,
,,,0.134270000000,   0.32000,
,,,0.134280000000,   0.32000,
,,,0.134290000000,   0.32000,
,,,0.134300000000,   0.32000,
,,,0.134310000000,   0.32000,
,,,0.134320000000,   0.32000,
,,,0.134330000000,   0.32000,
,,,0.134340000000,   0.32000,
,,,0.134350000000,   0.32000,
,,,0.134360000000,   0.32000,
,,,0.134370000000,   0.32000,
,,,0.134380000000,   0.32000,
,,,0.134390000000,   0.32000,
,,,0.134400000000,   0.32000,
,,,0.134410000000,   0.32000,
,,,0.134420000000,   0.32000,
,,,0.134430000000,   0.32000,
,,,0.134440000000,   0.32000,
,,,0.134450000000,   0.32000,
,,,0.134460000000,   0.32000,
,,,0.134470000000,   0.32000,
,,,0.134480000000,   0.32000,
,,,0.134490000000,   0.32000,
,,,0.134500000000,   0.32000,
,,,0.134510000000,   0.32000,
,,,0.134520000000,   0.31800,
,,,0.134530000000,   0.31800,
,,,0.134540000000,   0.32000,
,,,0.134550000000,   0.31800,
,,,0.134560000000,   0.32000,
,,,0.134570000000,   0.31800,
,,,0.134580000000,   0.31800,
,,,0.134590000000,   0.32000,
,,,0.134600000000,   0.32000,
,,,0.134610000000,   0.31800,
,,,0.134620000000,   0.31800,
,,,0.134630000000,   0.32000,
,,,0.134640000000,   0.31800,
,,,0.134650000000,   0.31800,
,,,0.134660000000,   0.31800,
,,,0.134670000000,   0.31800,
,,,0.134680000000,   0.31800,
,,,0.134690000000,   0.31800,
,,,0.134700000000,   0.31800,
,,,0.134710000000,   0.31800,
,,,0.134720000000,   0.31800,
,,,0.134730000000,   0.31800,
,,,0.134740000000,   0.31800,
,,,0.134750000000,   0.31800,
,,,0.134760000000,   0.31800,
,,,0.134770000000,   0.31800,
,,,0.134780000000,   0.31800,
,,,0.134790000000,   0.31800,
,,,0.134800000000,   0.31800,
,,,0.134810000000,   0.31800,
,,,0.134820000000,   0.31800,
,,,0.134830000000,   0.31800,
,,,0.134840000000,   0.31800,
,,,0.134850000000,   0.31800,
,,,0.134860000000,   0.31800,
,,,0.134870000000,   0.31800,
,,,0.134880000000,   0.31800,
,,,0.134890000000,   0.31800,
,,,0.134900000000,   0.31800,
,,,0.134910000000,   0.31800,
,,,0.134920000000,   0.31800,
,,,0.134930000000,   0.31800,
,,,0.134940000000,   0.31800,
,,,0.134950000000,   0.31800,
,,,0.134960000000,   0.31800,
,,,0.134970000000,   0.31800,
,,,0.134980000000,   0.31800,
,,,0.134990000000,   0.31800,
,,,0.135000000000,   0.31800,
,,,0.135010000000,   0.31800,
,,,0.135020000000,   0.31800,
,,,0.135030000000,   0.31800,
,,,0.135040000000,   0.31800,
,,,0.135050000000,   0.31800,
,,,0.135060000000,   0.31800,
,,,0.135070000000,   0.31800,
,,,0.135080000000,   0.31800,
,,,0.135090000000,   0.31800,
,,,0.135100000000,   0.31800,
,,,0.135110000000,   0.31800,
,,,0.135120000000,   0.31800,
,,,0.135130000000,   0.31800,
,,,0.135140000000,   0.31800,
,,,0.135150000000,   0.31800,
,,,0.135160000000,   0.31800,
,,,0.135170000000,   0.31800,
,,,0.135180000000,   0.31800,
,,,0.135190000000,   0.31800,
,,,0.135200000000,   0.31800,
,,,0.135210000000,   0.31800,
,,,0.135220000000,   0.31800,
,,,0.135230000000,   0.31800,
,,,0.135240000000,   0.31800,
,,,0.135250000000,   0.31800,
,,,0.135260000000,   0.31800,
,,,0.135270000000,   0.31800,
,,,0.135280000000,   0.31800,
,,,0.135290000000,   0.31800,
,,,0.135300000000,   0.31800,
,,,0.135310000000,   0.31800,
,,,0.135320000000,   0.31800,
,,,0.135330000000,   0.31800,
,,,0.135340000000,   0.31800,
,,,0.135350000000,   0.31800,
,,,0.135360000000,   0.31800,
,,,0.135370000000,   0.31800,
,,,0.135380000000,   0.31800,
,,,0.135390000000,   0.31800,
,,,0.135400000000,   0.31800,
,,,0.135410000000,   0.31800,
,,,0.135420000000,   0.31800,
,,,0.135430000000,   0.31800,
,,,0.135440000000,   0.31800,
,,,0.135450000000,   0.31800,
,,,0.135460000000,   0.31800,
,,,0.135470000000,   0.31800,
,,,0.135480000000,   0.31800,
,,,0.135490000000,   0.31800,
,,,0.135500000000,   0.31800,
,,,0.135510000000,   0.31800,
,,,0.135520000000,   0.31800,
,,,0.135530000000,   0.31800,
,,,0.135540000000,   0.31800,
,,,0.135550000000,   0.31800,
,,,0.135560000000,   0.31800,
,,,0.135570000000,   0.31800,
,,,0.135580000000,   0.31800,
,,,0.135590000000,   0.31800,
,,,0.135600000000,   0.31800,
,,,0.135610000000,   0.31800,
,,,0.135620000000,   0.31800,
,,,0.135630000000,   0.31800,
,,,0.135640000000,   0.31800,
,,,0.135650000000,   0.31800,
,,,0.135660000000,   0.31800,
,,,0.135670000000,   0.31800,
,,,0.135680000000,   0.31800,
,,,0.135690000000,   0.31800,
,,,0.135700000000,   0.31800,
,,,0.135710000000,   0.31800,
,,,0.135720000000,   0.31800,
,,,0.135730000000,   0.31800,
,,,0.135740000000,   0.31800,
,,,0.135750000000,   0.31800,
,,,0.135760000000,   0.31800,
,,,0.135770000000,   0.31800,
,,,0.135780000000,   0.31800,
,,,0.135790000000,   0.31800,
,,,0.135800000000,   0.31600,
,,,0.135810000000,   0.31800,
,,,0.135820000000,   0.31800,
,,,0.135830000000,   0.31800,
,,,0.135840000000,   0.31600,
,,,0.135850000000,   0.31800,
,,,0.135860000000,   0.31800,
,,,0.135870000000,   0.31800,
,,,0.135880000000,   0.31600,
,,,0.135890000000,   0.31800,
,,,0.135900000000,   0.31800,
,,,0.135910000000,   0.31600,
,,,0.135920000000,   0.31600,
,,,0.135930000000,   0.31800,
,,,0.135940000000,   0.31800,
,,,0.135950000000,   0.31600,
,,,0.135960000000,   0.31600,
,,,0.135970000000,   0.31600,
,,,0.135980000000,   0.31800,
,,,0.135990000000,   0.31600,
,,,0.136000000000,   0.31600,
,,,0.136010000000,   0.31600,
,,,0.136020000000,   0.31600,
,,,0.136030000000,   0.31600,
,,,0.136040000000,   0.31600,
,,,0.136050000000,   0.31600,
,,,0.136060000000,   0.31600,
,,,0.136070000000,   0.31600,
,,,0.136080000000,   0.31600,
,,,0.136090000000,   0.31600,
,,,0.136100000000,   0.31600,
,,,0.136110000000,   0.31600,
,,,0.136120000000,   0.31600,
,,,0.136130000000,   0.31600,
,,,0.136140000000,   0.31600,
,,,0.136150000000,   0.31600,
,,,0.136160000000,   0.31600,
,,,0.136170000000,   0.31600,
,,,0.136180000000,   0.31600,
,,,0.136190000000,   0.31600,
,,,0.136200000000,   0.31600,
,,,0.136210000000,   0.31600,
,,,0.136220000000,   0.31600,
,,,0.136230000000,   0.31600,
,,,0.136240000000,   0.31600,
,,,0.136250000000,   0.31600,
,,,0.136260000000,   0.31600,
,,,0.136270000000,   0.31600,
,,,0.136280000000,   0.31600,
,,,0.136290000000,   0.31600,
,,,0.136300000000,   0.31600,
,,,0.136310000000,   0.31600,
,,,0.136320000000,   0.31600,
,,,0.136330000000,   0.31600,
,,,0.136340000000,   0.31600,
,,,0.136350000000,   0.31600,
,,,0.136360000000,   0.31600,
,,,0.136370000000,   0.31600,
,,,0.136380000000,   0.31600,
,,,0.136390000000,   0.31600,
,,,0.136400000000,   0.31600,
,,,0.136410000000,   0.31600,
,,,0.136420000000,   0.31600,
,,,0.136430000000,   0.31600,
,,,0.136440000000,   0.31600,
,,,0.136450000000,   0.31600,
,,,0.136460000000,   0.31600,
,,,0.136470000000,   0.31600,
,,,0.136480000000,   0.31600,
,,,0.136490000000,   0.31600,
,,,0.136500000000,   0.31600,
,,,0.136510000000,   0.31600,
,,,0.136520000000,   0.31600,
,,,0.136530000000,   0.31600,
,,,0.136540000000,   0.31600,
,,,0.136550000000,   0.31600,
,,,0.136560000000,   0.31600,
,,,0.136570000000,   0.31600,
,,,0.136580000000,   0.31600,
,,,0.136590000000,   0.31600,
,,,0.136600000000,   0.31600,
,,,0.136610000000,   0.31600,
,,,0.136620000000,   0.31600,
,,,0.136630000000,   0.31600,
,,,0.136640000000,   0.31600,
,,,0.136650000000,   0.31600,
,,,0.136660000000,   0.31600,
,,,0.136670000000,   0.31600,
,,,0.136680000000,   0.31600,
,,,0.136690000000,   0.31600,
,,,0.136700000000,   0.31400,
,,,0.136710000000,   0.31600,
,,,0.136720000000,   0.31600,
,,,0.136730000000,   0.31600,
,,,0.136740000000,   0.31600,
,,,0.136750000000,   0.31600,
,,,0.136760000000,   0.31600,
,,,0.136770000000,   0.31400,
,,,0.136780000000,   0.31400,
,,,0.136790000000,   0.31600,
,,,0.136800000000,   0.31400,
,,,0.136810000000,   0.31400,
,,,0.136820000000,   0.31400,
,,,0.136830000000,   0.31400,
,,,0.136840000000,   0.31400,
,,,0.136850000000,   0.31400,
,,,0.136860000000,   0.31400,
,,,0.136870000000,   0.31400,
,,,0.136880000000,   0.31400,
,,,0.136890000000,   0.31400,
,,,0.136900000000,   0.31400,
,,,0.136910000000,   0.31400,
,,,0.136920000000,   0.31400,
,,,0.136930000000,   0.31400,
,,,0.136940000000,   0.31400,
,,,0.136950000000,   0.31400,
,,,0.136960000000,   0.31400,
,,,0.136970000000,   0.31400,
,,,0.136980000000,   0.31400,
,,,0.136990000000,   0.31400,
,,,0.137000000000,   0.31400,
,,,0.137010000000,   0.31400,
,,,0.137020000000,   0.31400,
,,,0.137030000000,   0.31400,
,,,0.137040000000,   0.31400,
,,,0.137050000000,   0.31400,
,,,0.137060000000,   0.31400,
,,,0.137070000000,   0.31400,
,,,0.137080000000,   0.31400,
,,,0.137090000000,   0.31400,
,,,0.137100000000,   0.31400,
,,,0.137110000000,   0.31400,
,,,0.137120000000,   0.31400,
,,,0.137130000000,   0.31400,
,,,0.137140000000,   0.31400,
,,,0.137150000000,   0.31400,
,,,0.137160000000,   0.31400,
,,,0.137170000000,   0.31400,
,,,0.137180000000,   0.31400,
,,,0.137190000000,   0.31400,
,,,0.137200000000,   0.31400,
,,,0.137210000000,   0.31400,
,,,0.137220000000,   0.31400,
,,,0.137230000000,   0.31400,
,,,0.137240000000,   0.31400,
,,,0.137250000000,   0.31400,
,,,0.137260000000,   0.31400,
,,,0.137270000000,   0.31400,
,,,0.137280000000,   0.31400,
,,,0.137290000000,   0.31400,
,,,0.137300000000,   0.31200,
,,,0.137310000000,   0.31400,
,,,0.137320000000,   0.31400,
,,,0.137330000000,   0.31400,
,,,0.137340000000,   0.31200,
,,,0.137350000000,   0.31200,
,,,0.137360000000,   0.31200,
,,,0.137370000000,   0.31200,
,,,0.137380000000,   0.31200,
,,,0.137390000000,   0.31200,
,,,0.137400000000,   0.31200,
,,,0.137410000000,   0.31200,
,,,0.137420000000,   0.31200,
,,,0.137430000000,   0.31200,
,,,0.137440000000,   0.31200,
,,,0.137450000000,   0.31200,
,,,0.137460000000,   0.31200,
,,,0.137470000000,   0.31200,
,,,0.137480000000,   0.31200,
,,,0.137490000000,   0.31200,
,,,0.137500000000,   0.31200,
,,,0.137510000000,   0.31200,
,,,0.137520000000,   0.31200,
,,,0.137530000000,   0.31200,
,,,0.137540000000,   0.31200,
,,,0.137550000000,   0.31200,
,,,0.137560000000,   0.31200,
,,,0.137570000000,   0.31200,
,,,0.137580000000,   0.31200,
,,,0.137590000000,   0.31200,
,,,0.137600000000,   0.31200,
,,,0.137610000000,   0.31200,
,,,0.137620000000,   0.31200,
,,,0.137630000000,   0.31200,
,,,0.137640000000,   0.31200,
,,,0.137650000000,   0.31200,
,,,0.137660000000,   0.31200,
,,,0.137670000000,   0.31200,
,,,0.137680000000,   0.31200,
,,,0.137690000000,   0.31200,
,,,0.137700000000,   0.31200,
,,,0.137710000000,   0.31200,
,,,0.137720000000,   0.31200,
,,,0.137730000000,   0.31200,
,,,0.137740000000,   0.31200,
,,,0.137750000000,   0.31200,
,,,0.137760000000,   0.31200,
,,,0.137770000000,   0.31200,
,,,0.137780000000,   0.31200,
,,,0.137790000000,   0.31200,
,,,0.137800000000,   0.31200,
,,,0.137810000000,   0.31200,
,,,0.137820000000,   0.31200,
,,,0.137830000000,   0.31200,
,,,0.137840000000,   0.31200,
,,,0.137850000000,   0.31200,
,,,0.137860000000,   0.31200,
,,,0.137870000000,   0.31200,
,,,0.137880000000,   0.31200,
,,,0.137890000000,   0.31000,
,,,0.137900000000,   0.31200,
,,,0.137910000000,   0.31200,
,,,0.137920000000,   0.31000,
,,,0.137930000000,   0.31200,
,,,0.137940000000,   0.31200,
,,,0.137950000000,   0.31000,
,,,0.137960000000,   0.31000,
,,,0.137970000000,   0.31200,
,,,0.137980000000,   0.31000,
,,,0.137990000000,   0.31000,
,,,0.138000000000,   0.31000,
,,,0.138010000000,   0.31000,
,,,0.138020000000,   0.31000,
,,,0.138030000000,   0.31000,
,,,0.138040000000,   0.31000,
,,,0.138050000000,   0.31000,
,,,0.138060000000,   0.31000,
,,,0.138070000000,   0.31000,
,,,0.138080000000,   0.31000,
,,,0.138090000000,   0.31000,
,,,0.138100000000,   0.31000,
,,,0.138110000000,   0.31000,
,,,0.138120000000,   0.31000,
,,,0.138130000000,   0.31000,
,,,0.138140000000,   0.31000,
,,,0.138150000000,   0.31000,
,,,0.138160000000,   0.31000,
,,,0.138170000000,   0.31000,
,,,0.138180000000,   0.31000,
,,,0.138190000000,   0.31000,
,,,0.138200000000,   0.31000,
,,,0.138210000000,   0.31000,
,,,0.138220000000,   0.31000,
,,,0.138230000000,   0.31000,
,,,0.138240000000,   0.31000,
,,,0.138250000000,   0.31000,
,,,0.138260000000,   0.31000,
,,,0.138270000000,   0.31000,
,,,0.138280000000,   0.31000,
,,,0.138290000000,   0.31000,
,,,0.138300000000,   0.31000,
,,,0.138310000000,   0.31000,
,,,0.138320000000,   0.31000,
,,,0.138330000000,   0.31000,
,,,0.138340000000,   0.31000,
,,,0.138350000000,   0.31000,
,,,0.138360000000,   0.31000,
,,,0.138370000000,   0.31000,
,,,0.138380000000,   0.31000,
,,,0.138390000000,   0.31000,
,,,0.138400000000,   0.31000,
,,,0.138410000000,   0.31000,
,,,0.138420000000,   0.31000,
,,,0.138430000000,   0.31000,
,,,0.138440000000,   0.31000,
,,,0.138450000000,   0.31000,
,,,0.138460000000,   0.31000,
,,,0.138470000000,   0.31000,
,,,0.138480000000,   0.31000,
,,,0.138490000000,   0.31000,
,,,0.138500000000,   0.30800,
,,,0.138510000000,   0.31000,
,,,0.138520000000,   0.30800,
,,,0.138530000000,   0.31000,
,,,0.138540000000,   0.30800,
,,,0.138550000000,   0.30800,
,,,0.138560000000,   0.30800,
,,,0.138570000000,   0.31000,
,,,0.138580000000,   0.30800,
,,,0.138590000000,   0.30800,
,,,0.138600000000,   0.30800,
,,,0.138610000000,   0.30800,
,,,0.138620000000,   0.30800,
,,,0.138630000000,   0.31000,
,,,0.138640000000,   0.30800,
,,,0.138650000000,   0.30800,
,,,0.138660000000,   0.30800,
,,,0.138670000000,   0.30800,
,,,0.138680000000,   0.30800,
,,,0.138690000000,   0.30800,
,,,0.138700000000,   0.30800,
,,,0.138710000000,   0.30800,
,,,0.138720000000,   0.30800,
,,,0.138730000000,   0.30800,
,,,0.138740000000,   0.30800,
,,,0.138750000000,   0.30800,
,,,0.138760000000,   0.30800,
,,,0.138770000000,   0.30800,
,,,0.138780000000,   0.30800,
,,,0.138790000000,   0.30800,
,,,0.138800000000,   0.30800,
,,,0.138810000000,   0.30800,
,,,0.138820000000,   0.30800,
,,,0.138830000000,   0.30800,
,,,0.138840000000,   0.30800,
,,,0.138850000000,   0.30800,
,,,0.138860000000,   0.30800,
,,,0.138870000000,   0.30800,
,,,0.138880000000,   0.30800,
,,,0.138890000000,   0.30800,
,,,0.138900000000,   0.30800,
,,,0.138910000000,   0.30800,
,,,0.138920000000,   0.30800,
,,,0.138930000000,   0.30800,
,,,0.138940000000,   0.30800,
,,,0.138950000000,   0.30800,
,,,0.138960000000,   0.30800,
,,,0.138970000000,   0.30800,
,,,0.138980000000,   0.30800,
,,,0.138990000000,   0.30800,
,,,0.139000000000,   0.30800,
,,,0.139010000000,   0.30800,
,,,0.139020000000,   0.30800,
,,,0.139030000000,   0.30800,
,,,0.139040000000,   0.30800,
,,,0.139050000000,   0.30800,
,,,0.139060000000,   0.30800,
,,,0.139070000000,   0.30800,
,,,0.139080000000,   0.30800,
,,,0.139090000000,   0.30800,
,,,0.139100000000,   0.30600,
,,,0.139110000000,   0.30600,
,,,0.139120000000,   0.30600,
,,,0.139130000000,   0.30600,
,,,0.139140000000,   0.30600,
,,,0.139150000000,   0.30600,
,,,0.139160000000,   0.30600,
,,,0.139170000000,   0.30600,
,,,0.139180000000,   0.30600,
,,,0.139190000000,   0.30600,
,,,0.139200000000,   0.30600,
,,,0.139210000000,   0.30600,
,,,0.139220000000,   0.30600,
,,,0.139230000000,   0.30600,
,,,0.139240000000,   0.30600,
,,,0.139250000000,   0.30600,
,,,0.139260000000,   0.30600,
,,,0.139270000000,   0.30600,
,,,0.139280000000,   0.30600,
,,,0.139290000000,   0.30600,
,,,0.139300000000,   0.30600,
,,,0.139310000000,   0.30600,
,,,0.139320000000,   0.30600,
,,,0.139330000000,   0.30600,
,,,0.139340000000,   0.30600,
,,,0.139350000000,   0.30600,
,,,0.139360000000,   0.30600,
,,,0.139370000000,   0.30600,
,,,0.139380000000,   0.30600,
,,,0.139390000000,   0.30600,
,,,0.139400000000,   0.30600,
,,,0.139410000000,   0.30600,
,,,0.139420000000,   0.30600,
,,,0.139430000000,   0.30600,
,,,0.139440000000,   0.30400,
,,,0.139450000000,   0.30600,
,,,0.139460000000,   0.30600,
,,,0.139470000000,   0.30400,
,,,0.139480000000,   0.30600,
,,,0.139490000000,   0.30400,
,,,0.139500000000,   0.30600,
,,,0.139510000000,   0.30400,
,,,0.139520000000,   0.30400,
,,,0.139530000000,   0.30400,
,,,0.139540000000,   0.30400,
,,,0.139550000000,   0.30400,
,,,0.139560000000,   0.30400,
,,,0.139570000000,   0.30400,
,,,0.139580000000,   0.30400,
,,,0.139590000000,   0.30400,
,,,0.139600000000,   0.30400,
,,,0.139610000000,   0.30400,
,,,0.139620000000,   0.30400,
,,,0.139630000000,   0.30400,
,,,0.139640000000,   0.30400,
,,,0.139650000000,   0.30400,
,,,0.139660000000,   0.30400,
,,,0.139670000000,   0.30400,
,,,0.139680000000,   0.30400,
,,,0.139690000000,   0.30400,
,,,0.139700000000,   0.30400,
,,,0.139710000000,   0.30400,
,,,0.139720000000,   0.30400,
,,,0.139730000000,   0.30400,
,,,0.139740000000,   0.30400,
,,,0.139750000000,   0.30400,
,,,0.139760000000,   0.30400,
,,,0.139770000000,   0.30400,
,,,0.139780000000,   0.30200,
,,,0.139790000000,   0.30200,
,,,0.139800000000,   0.30200,
,,,0.139810000000,   0.30200,
,,,0.139820000000,   0.30200,
,,,0.139830000000,   0.30200,
,,,0.139840000000,   0.30200,
,,,0.139850000000,   0.30200,
,,,0.139860000000,   0.30200,
,,,0.139870000000,   0.30200,
,,,0.139880000000,   0.30200,
,,,0.139890000000,   0.30200,
,,,0.139900000000,   0.30200,
,,,0.139910000000,   0.30200,
,,,0.139920000000,   0.30200,
,,,0.139930000000,   0.30200,
,,,0.139940000000,   0.30200,
,,,0.139950000000,   0.30200,
,,,0.139960000000,   0.30200,
,,,0.139970000000,   0.30200,
,,,0.139980000000,   0.30200,
,,,0.139990000000,   0.30200,
,,,0.140000000000,   0.30200,
,,,0.140010000000,   0.30200,
,,,0.140020000000,   0.30200,
,,,0.140030000000,   0.30000,
,,,0.140040000000,   0.30200,
,,,0.140050000000,   0.30000,
,,,0.140060000000,   0.30000,
,,,0.140070000000,   0.30000,
,,,0.140080000000,   0.30000,
,,,0.140090000000,   0.30000,
,,,0.140100000000,   0.30000,
,,,0.140110000000,   0.30000,
,,,0.140120000000,   0.30000,
,,,0.140130000000,   0.30000,
,,,0.140140000000,   0.30000,
,,,0.140150000000,   0.30000,
,,,0.140160000000,   0.30000,
,,,0.140170000000,   0.30000,
,,,0.140180000000,   0.30000,
,,,0.140190000000,   0.30000,
,,,0.140200000000,   0.30000,
,,,0.140210000000,   0.30000,
,,,0.140220000000,   0.30000,
,,,0.140230000000,   0.30000,
,,,0.140240000000,   0.30000,
,,,0.140250000000,   0.30000,
,,,0.140260000000,   0.30000,
,,,0.140270000000,   0.30000,
,,,0.140280000000,   0.30000,
,,,0.140290000000,   0.30000,
,,,0.140300000000,   0.30000,
,,,0.140310000000,   0.29800,
,,,0.140320000000,   0.29800,
,,,0.140330000000,   0.29800,
